HW2/CAHW2/practical/1/simulation/qsim/full_adder_1_bit.msim.vcd
$comment
	File created using the following command:
		vcd file full_adder_1_bit.msim.vcd -direction
$end
$date
	Wed Mar 06 14:43:38 2024
$end
$version
	ModelSim Version 10.1d
$end
$timescale
	1ps
$end
$scope module Q1_vlg_vec_tst $end
$var reg 1 ! clock $end
$var reg 3 " instr0 [2:0] $end
$var reg 3 # instr1 [2:0] $end
$var reg 3 $ instr2 [2:0] $end
$var reg 3 % instr3 [2:0] $end
$var reg 3 & operand1 [2:0] $end
$var reg 3 ' opernad0 [2:0] $end
$var wire 1 ( R0_value [7] $end
$var wire 1 ) R0_value [6] $end
$var wire 1 * R0_value [5] $end
$var wire 1 + R0_value [4] $end
$var wire 1 , R0_value [3] $end
$var wire 1 - R0_value [2] $end
$var wire 1 . R0_value [1] $end
$var wire 1 / R0_value [0] $end
$var wire 1 0 R1_value [7] $end
$var wire 1 1 R1_value [6] $end
$var wire 1 2 R1_value [5] $end
$var wire 1 3 R1_value [4] $end
$var wire 1 4 R1_value [3] $end
$var wire 1 5 R1_value [2] $end
$var wire 1 6 R1_value [1] $end
$var wire 1 7 R1_value [0] $end
$var wire 1 8 R2_value [7] $end
$var wire 1 9 R2_value [6] $end
$var wire 1 : R2_value [5] $end
$var wire 1 ; R2_value [4] $end
$var wire 1 < R2_value [3] $end
$var wire 1 = R2_value [2] $end
$var wire 1 > R2_value [1] $end
$var wire 1 ? R2_value [0] $end
$var wire 1 @ R3_value [7] $end
$var wire 1 A R3_value [6] $end
$var wire 1 B R3_value [5] $end
$var wire 1 C R3_value [4] $end
$var wire 1 D R3_value [3] $end
$var wire 1 E R3_value [2] $end
$var wire 1 F R3_value [1] $end
$var wire 1 G R3_value [0] $end
$var wire 1 H result_pin [7] $end
$var wire 1 I result_pin [6] $end
$var wire 1 J result_pin [5] $end
$var wire 1 K result_pin [4] $end
$var wire 1 L result_pin [3] $end
$var wire 1 M result_pin [2] $end
$var wire 1 N result_pin [1] $end
$var wire 1 O result_pin [0] $end
$var wire 1 P sampler $end
$scope module i1 $end
$var wire 1 Q gnd $end
$var wire 1 R vcc $end
$var wire 1 S unknown $end
$var tri1 1 T devclrn $end
$var tri1 1 U devpor $end
$var tri1 1 V devoe $end
$var wire 1 W clock~combout $end
$var wire 1 X instance1|inst8~0_combout $end
$var wire 1 Y inst14|inst2~0_combout $end
$var wire 1 Z inst14|inst2~1_combout $end
$var wire 1 [ inst12|inst8~1_combout $end
$var wire 1 \ inst13|inst~0_combout $end
$var wire 1 ] inst13|inst~1_combout $end
$var wire 1 ^ inst19|inst2|$00000|auto_generated|result_node[7]~0_combout $end
$var wire 1 _ inst16|inst2|$00000|auto_generated|result_node[6]~1_combout $end
$var wire 1 ` inst15|inst2|$00000|auto_generated|result_node[7]~18_combout $end
$var wire 1 a inst15|inst2|$00000|auto_generated|result_node[7]~19_combout $end
$var wire 1 b inst15|inst2|$00000|auto_generated|result_node[7]~20_combout $end
$var wire 1 c inst16|inst2|$00000|auto_generated|result_node[7]~9_combout $end
$var wire 1 d inst16|inst2|$00000|auto_generated|result_node[7]~10_combout $end
$var wire 1 e inst16|inst2|$00000|auto_generated|result_node[7]~11_combout $end
$var wire 1 f instance1|inst8~1_combout $end
$var wire 1 g inst20|inst2|$00000|auto_generated|result_node[5]~4_combout $end
$var wire 1 h inst15|inst2|$00000|auto_generated|result_node[5]~3_combout $end
$var wire 1 i inst15|inst2|$00000|auto_generated|result_node[5]~4_combout $end
$var wire 1 j inst15|inst2|$00000|auto_generated|result_node[5]~5_combout $end
$var wire 1 k inst15|inst2|$00000|auto_generated|result_node[4]~6_combout $end
$var wire 1 l inst15|inst2|$00000|auto_generated|result_node[4]~7_combout $end
$var wire 1 m inst15|inst2|$00000|auto_generated|result_node[4]~8_combout $end
$var wire 1 n inst12|inst8~0_combout $end
$var wire 1 o inst19|inst2|$00000|auto_generated|result_node[3]~8_combout $end
$var wire 1 p inst15|inst2|$00000|auto_generated|result_node[3]~9_combout $end
$var wire 1 q inst15|inst2|$00000|auto_generated|result_node[3]~10_combout $end
$var wire 1 r inst15|inst2|$00000|auto_generated|result_node[3]~11_combout $end
$var wire 1 s inst16|inst|mux2|$00000|auto_generated|result_node[2]~8_combout $end
$var wire 1 t inst16|inst|mux2|$00000|auto_generated|result_node[2]~9_combout $end
$var wire 1 u inst16|inst2|$00000|auto_generated|result_node[2]~5_combout $end
$var wire 1 v inst15|inst|mux2|$00000|auto_generated|result_node[0]~0_combout $end
$var wire 1 w inst15|inst|mux2|$00000|auto_generated|result_node[0]~1_combout $end
$var wire 1 x inst18|inst|inst|inst4~combout $end
$var wire 1 y instance|inst2|$00000|auto_generated|result_node[0]~14_combout $end
$var wire 1 z instance1|inst8~2_combout $end
$var wire 1 { instance1|inst~regout $end
$var wire 1 | inst19|inst2|$00000|auto_generated|result_node[0]~14_combout $end
$var wire 1 } inst13|inst~2_combout $end
$var wire 1 ~ inst13|inst~regout $end
$var wire 1 !! inst20|inst2|$00000|auto_generated|result_node[0]~14_combout $end
$var wire 1 "! inst14|inst2~2_combout $end
$var wire 1 #! inst14|inst~regout $end
$var wire 1 $! inst17|inst2|$00000|auto_generated|result_node[0]~14_combout $end
$var wire 1 %! inst12|inst8~2_combout $end
$var wire 1 &! inst12|inst~regout $end
$var wire 1 '! inst16|inst|mux2|$00000|auto_generated|result_node[0]~10_combout $end
$var wire 1 (! inst16|inst|mux2|$00000|auto_generated|result_node[0]~11_combout $end
$var wire 1 )! inst17|inst2|$00000|auto_generated|result_node[1]~12_combout $end
$var wire 1 *! inst12|inst1~regout $end
$var wire 1 +! instance|inst2|$00000|auto_generated|result_node[1]~12_combout $end
$var wire 1 ,! instance1|inst1~regout $end
$var wire 1 -! inst15|inst2|$00000|auto_generated|result_node[1]~15_combout $end
$var wire 1 .! inst15|inst2|$00000|auto_generated|result_node[1]~16_combout $end
$var wire 1 /! inst15|inst2|$00000|auto_generated|result_node[1]~17_combout $end
$var wire 1 0! inst18|inst|inst1|inst3~0_combout $end
$var wire 1 1! inst19|inst2|$00000|auto_generated|result_node[1]~12_combout $end
$var wire 1 2! inst13|inst1~regout $end
$var wire 1 3! inst20|inst2|$00000|auto_generated|result_node[1]~12_combout $end
$var wire 1 4! inst14|inst1~regout $end
$var wire 1 5! inst16|inst2|$00000|auto_generated|result_node[1]~6_combout $end
$var wire 1 6! inst16|inst2|$00000|auto_generated|result_node[1]~7_combout $end
$var wire 1 7! inst16|inst2|$00000|auto_generated|result_node[1]~8_combout $end
$var wire 1 8! inst18|inst|inst1|inst2~0_combout $end
$var wire 1 9! inst18|inst|inst2|inst3~0_combout $end
$var wire 1 :! instance|inst2|$00000|auto_generated|result_node[2]~10_combout $end
$var wire 1 ;! instance1|inst2~regout $end
$var wire 1 <! inst19|inst2|$00000|auto_generated|result_node[2]~10_combout $end
$var wire 1 =! inst13|inst2~regout $end
$var wire 1 >! inst17|inst2|$00000|auto_generated|result_node[2]~10_combout $end
$var wire 1 ?! inst12|inst2~regout $end
$var wire 1 @! inst20|inst2|$00000|auto_generated|result_node[2]~10_combout $end
$var wire 1 A! inst14|inst2~regout $end
$var wire 1 B! inst15|inst2|$00000|auto_generated|result_node[2]~12_combout $end
$var wire 1 C! inst15|inst2|$00000|auto_generated|result_node[2]~13_combout $end
$var wire 1 D! inst15|inst2|$00000|auto_generated|result_node[2]~14_combout $end
$var wire 1 E! inst18|inst|inst2|inst2~0_combout $end
$var wire 1 F! inst18|inst|inst3|inst3~0_combout $end
$var wire 1 G! inst13|inst3~regout $end
$var wire 1 H! inst17|inst2|$00000|auto_generated|result_node[3]~8_combout $end
$var wire 1 I! inst12|inst3~regout $end
$var wire 1 J! instance|inst2|$00000|auto_generated|result_node[3]~8_combout $end
$var wire 1 K! instance1|inst3~regout $end
$var wire 1 L! inst20|inst2|$00000|auto_generated|result_node[3]~8_combout $end
$var wire 1 M! inst14|inst3~regout $end
$var wire 1 N! inst16|inst|mux2|$00000|auto_generated|result_node[3]~6_combout $end
$var wire 1 O! inst16|inst|mux2|$00000|auto_generated|result_node[3]~7_combout $end
$var wire 1 P! inst16|inst2|$00000|auto_generated|result_node[3]~4_combout $end
$var wire 1 Q! inst18|inst|inst3|inst2~0_combout $end
$var wire 1 R! inst18|inst|inst5|inst3~0_combout $end
$var wire 1 S! instance|inst2|$00000|auto_generated|result_node[4]~6_combout $end
$var wire 1 T! instance1|inst5~regout $end
$var wire 1 U! inst17|inst2|$00000|auto_generated|result_node[4]~6_combout $end
$var wire 1 V! inst12|inst5~regout $end
$var wire 1 W! inst19|inst2|$00000|auto_generated|result_node[4]~6_combout $end
$var wire 1 X! inst13|inst5~regout $end
$var wire 1 Y! inst20|inst2|$00000|auto_generated|result_node[4]~6_combout $end
$var wire 1 Z! inst14|inst5~regout $end
$var wire 1 [! inst16|inst|mux2|$00000|auto_generated|result_node[4]~4_combout $end
$var wire 1 \! inst16|inst|mux2|$00000|auto_generated|result_node[4]~5_combout $end
$var wire 1 ]! inst16|inst2|$00000|auto_generated|result_node[4]~3_combout $end
$var wire 1 ^! inst18|inst|inst5|inst2~0_combout $end
$var wire 1 _! inst18|inst|inst6|inst3~0_combout $end
$var wire 1 `! inst14|inst6~regout $end
$var wire 1 a! instance|inst2|$00000|auto_generated|result_node[5]~4_combout $end
$var wire 1 b! instance1|inst6~regout $end
$var wire 1 c! inst19|inst2|$00000|auto_generated|result_node[5]~4_combout $end
$var wire 1 d! inst13|inst6~regout $end
$var wire 1 e! inst17|inst2|$00000|auto_generated|result_node[5]~4_combout $end
$var wire 1 f! inst12|inst6~regout $end
$var wire 1 g! inst16|inst|mux2|$00000|auto_generated|result_node[5]~2_combout $end
$var wire 1 h! inst16|inst|mux2|$00000|auto_generated|result_node[5]~3_combout $end
$var wire 1 i! inst16|inst2|$00000|auto_generated|result_node[5]~2_combout $end
$var wire 1 j! inst18|inst|inst6|inst2~0_combout $end
$var wire 1 k! inst16|inst|mux2|$00000|auto_generated|result_node[6]~0_combout $end
$var wire 1 l! inst16|inst|mux2|$00000|auto_generated|result_node[6]~1_combout $end
$var wire 1 m! inst16|inst2|$00000|auto_generated|result_node[6]~0_combout $end
$var wire 1 n! inst18|inst|inst7|inst3~0_combout $end
$var wire 1 o! instance|inst2|$00000|auto_generated|result_node[6]~2_combout $end
$var wire 1 p! instance1|inst7~regout $end
$var wire 1 q! inst17|inst2|$00000|auto_generated|result_node[6]~2_combout $end
$var wire 1 r! inst12|inst7~regout $end
$var wire 1 s! inst20|inst2|$00000|auto_generated|result_node[6]~2_combout $end
$var wire 1 t! inst14|inst7~regout $end
$var wire 1 u! inst19|inst2|$00000|auto_generated|result_node[6]~2_combout $end
$var wire 1 v! inst13|inst7~regout $end
$var wire 1 w! inst15|inst2|$00000|auto_generated|result_node[6]~0_combout $end
$var wire 1 x! inst15|inst2|$00000|auto_generated|result_node[6]~1_combout $end
$var wire 1 y! inst15|inst2|$00000|auto_generated|result_node[6]~2_combout $end
$var wire 1 z! inst18|inst|inst7|inst2~0_combout $end
$var wire 1 {! inst18|inst|inst8|inst3~0_combout $end
$var wire 1 |! inst13|inst8~regout $end
$var wire 1 }! inst17|inst2|$00000|auto_generated|result_node[7]~0_combout $end
$var wire 1 ~! inst12|inst8~regout $end
$var wire 1 !" inst20|inst2|$00000|auto_generated|result_node[7]~0_combout $end
$var wire 1 "" inst14|inst8~regout $end
$var wire 1 #" instance|inst2|$00000|auto_generated|result_node[7]~0_combout $end
$var wire 1 $" instance1|inst8~regout $end
$var wire 1 %" instance|inst3|mux2|$00000|auto_generated|result_node [7] $end
$var wire 1 &" instance|inst3|mux2|$00000|auto_generated|result_node [6] $end
$var wire 1 '" instance|inst3|mux2|$00000|auto_generated|result_node [5] $end
$var wire 1 (" instance|inst3|mux2|$00000|auto_generated|result_node [4] $end
$var wire 1 )" instance|inst3|mux2|$00000|auto_generated|result_node [3] $end
$var wire 1 *" instance|inst3|mux2|$00000|auto_generated|result_node [2] $end
$var wire 1 +" instance|inst3|mux2|$00000|auto_generated|result_node [1] $end
$var wire 1 ," instance|inst3|mux2|$00000|auto_generated|result_node [0] $end
$var wire 1 -" inst17|inst3|mux2|$00000|auto_generated|result_node [7] $end
$var wire 1 ." inst17|inst3|mux2|$00000|auto_generated|result_node [6] $end
$var wire 1 /" inst17|inst3|mux2|$00000|auto_generated|result_node [5] $end
$var wire 1 0" inst17|inst3|mux2|$00000|auto_generated|result_node [4] $end
$var wire 1 1" inst17|inst3|mux2|$00000|auto_generated|result_node [3] $end
$var wire 1 2" inst17|inst3|mux2|$00000|auto_generated|result_node [2] $end
$var wire 1 3" inst17|inst3|mux2|$00000|auto_generated|result_node [1] $end
$var wire 1 4" inst17|inst3|mux2|$00000|auto_generated|result_node [0] $end
$var wire 1 5" inst19|inst3|mux2|$00000|auto_generated|result_node [7] $end
$var wire 1 6" inst19|inst3|mux2|$00000|auto_generated|result_node [6] $end
$var wire 1 7" inst19|inst3|mux2|$00000|auto_generated|result_node [5] $end
$var wire 1 8" inst19|inst3|mux2|$00000|auto_generated|result_node [4] $end
$var wire 1 9" inst19|inst3|mux2|$00000|auto_generated|result_node [3] $end
$var wire 1 :" inst19|inst3|mux2|$00000|auto_generated|result_node [2] $end
$var wire 1 ;" inst19|inst3|mux2|$00000|auto_generated|result_node [1] $end
$var wire 1 <" inst19|inst3|mux2|$00000|auto_generated|result_node [0] $end
$var wire 1 =" inst20|inst3|mux2|$00000|auto_generated|result_node [7] $end
$var wire 1 >" inst20|inst3|mux2|$00000|auto_generated|result_node [6] $end
$var wire 1 ?" inst20|inst3|mux2|$00000|auto_generated|result_node [5] $end
$var wire 1 @" inst20|inst3|mux2|$00000|auto_generated|result_node [4] $end
$var wire 1 A" inst20|inst3|mux2|$00000|auto_generated|result_node [3] $end
$var wire 1 B" inst20|inst3|mux2|$00000|auto_generated|result_node [2] $end
$var wire 1 C" inst20|inst3|mux2|$00000|auto_generated|result_node [1] $end
$var wire 1 D" inst20|inst3|mux2|$00000|auto_generated|result_node [0] $end
$var wire 1 E" inst15|inst2|$00000|auto_generated|result_node [7] $end
$var wire 1 F" inst15|inst2|$00000|auto_generated|result_node [6] $end
$var wire 1 G" inst15|inst2|$00000|auto_generated|result_node [5] $end
$var wire 1 H" inst15|inst2|$00000|auto_generated|result_node [4] $end
$var wire 1 I" inst15|inst2|$00000|auto_generated|result_node [3] $end
$var wire 1 J" inst15|inst2|$00000|auto_generated|result_node [2] $end
$var wire 1 K" inst15|inst2|$00000|auto_generated|result_node [1] $end
$var wire 1 L" inst15|inst2|$00000|auto_generated|result_node [0] $end
$var wire 1 M" inst16|inst2|$00000|auto_generated|result_node [7] $end
$var wire 1 N" inst16|inst2|$00000|auto_generated|result_node [6] $end
$var wire 1 O" inst16|inst2|$00000|auto_generated|result_node [5] $end
$var wire 1 P" inst16|inst2|$00000|auto_generated|result_node [4] $end
$var wire 1 Q" inst16|inst2|$00000|auto_generated|result_node [3] $end
$var wire 1 R" inst16|inst2|$00000|auto_generated|result_node [2] $end
$var wire 1 S" inst16|inst2|$00000|auto_generated|result_node [1] $end
$var wire 1 T" inst16|inst2|$00000|auto_generated|result_node [0] $end
$var wire 1 U" opernad0~combout [2] $end
$var wire 1 V" opernad0~combout [1] $end
$var wire 1 W" opernad0~combout [0] $end
$var wire 1 X" operand1~combout [2] $end
$var wire 1 Y" operand1~combout [1] $end
$var wire 1 Z" operand1~combout [0] $end
$var wire 1 [" instr3~combout [2] $end
$var wire 1 \" instr3~combout [1] $end
$var wire 1 ]" instr3~combout [0] $end
$var wire 1 ^" instr2~combout [2] $end
$var wire 1 _" instr2~combout [1] $end
$var wire 1 `" instr2~combout [0] $end
$var wire 1 a" instr1~combout [2] $end
$var wire 1 b" instr1~combout [1] $end
$var wire 1 c" instr1~combout [0] $end
$var wire 1 d" instr0~combout [2] $end
$var wire 1 e" instr0~combout [1] $end
$var wire 1 f" instr0~combout [0] $end
$upscope $end
$upscope $end
$enddefinitions $end
#0
$dumpvars
0!
b0 "
b1 #
b100 $
b11 %
b100 &
b10 '
0/
0.
0-
0,
0+
0*
0)
0(
07
06
05
04
03
02
01
00
0?
0>
0=
0<
0;
0:
09
08
0G
0F
0E
0D
0C
0B
0A
0@
1O
0N
0M
0L
0K
0J
0I
0H
xP
0Q
1R
xS
1T
1U
1V
0W
0X
1Y
0Z
0[
1\
1]
1^
0_
0`
0a
0b
0c
0d
0e
0f
0g
0h
0i
0j
0k
0l
0m
0n
1o
0p
0q
0r
0s
0t
0u
0v
0w
1x
0y
0z
0{
1|
1}
0~
0!!
0"!
0#!
0$!
0%!
0&!
0'!
0(!
0)!
0*!
0+!
0,!
0-!
0.!
0/!
00!
11!
02!
03!
04!
05!
06!
07!
08!
09!
0:!
0;!
1<!
0=!
0>!
0?!
0@!
0A!
0B!
0C!
0D!
0E!
0F!
0G!
0H!
0I!
0J!
0K!
0L!
0M!
0N!
0O!
0P!
0Q!
0R!
0S!
0T!
0U!
0V!
1W!
0X!
0Y!
0Z!
0[!
0\!
0]!
0^!
0_!
0`!
0a!
0b!
1c!
0d!
0e!
0f!
0g!
0h!
0i!
0j!
0k!
0l!
0m!
0n!
0o!
0p!
0q!
0r!
0s!
0t!
1u!
0v!
0w!
0x!
0y!
0z!
0{!
0|!
0}!
0~!
0!"
0""
0#"
0$"
1,"
0+"
0*"
0)"
0("
0'"
0&"
0%"
14"
13"
12"
11"
10"
1/"
1."
1-"
1<"
0;"
0:"
09"
08"
07"
06"
05"
1D"
1C"
1B"
1A"
1@"
1?"
1>"
1="
0L"
zK"
zJ"
zI"
zH"
zG"
zF"
zE"
1T"
zS"
zR"
zQ"
zP"
zO"
zN"
zM"
0W"
1V"
0U"
0Z"
0Y"
1X"
1]"
1\"
0["
0`"
0_"
1^"
1c"
0b"
0a"
0f"
0e"
0d"
$end
#25000
1!
1W
0P
1~
1!!
1v
1?
1w
1L"
0x
10!
0<"
0,"
0O
1;"
1+"
1N
#50000
0!
0W
1P
#75000
1!
1W
0P
12!
0~
1.!
0!!
0v
1>
0?
1/!
0w
18!
00!
0L"
1x
19!
0;"
0+"
08!
10!
1<"
1,"
0N
1O
1:"
1*"
09!
1;"
1+"
1M
1N
0:"
0*"
0M
#100000
0!
0W
1P
#125000
1!
1W
0P
1~
1!!
1v
1?
1w
1L"
0x
18!
00!
0<"
0,"
0O
19!
0;"
0+"
0N
1:"
1*"
1M
#150000
0!
0W
1P
#175000
1!
1W
0P
1=!
02!
0~
1C!
1@!
0.!
0!!
0v
1=
0>
0?
1D!
0/!
0w
1E!
09!
08!
10!
0L"
1x
1F!
0:"
0*"
0E!
19!
1;"
1+"
00!
1<"
1,"
0M
1N
1O
1)"
19"
0F!
1:"
1*"
0;"
0+"
1L
1M
0N
0)"
09"
0L
#200000
0!
0W
1P
#225000
1!
1W
0P
1~
1!!
1v
1?
1w
1L"
0x
10!
0<"
0,"
0O
1;"
1+"
1N
#250000
b11 #
b10 #
b0 $
b10 $
0!
1_"
0^"
0c"
1b"
0W
1P
15"
16"
17"
18"
19"
0}
1<"
0]
1%!
1[
0u!
0c!
0W!
0<!
01!
0|
0o
0^
#275000
1!
1W
0P
1?!
1&!
1:!
1y
15
17
#300000
0!
0W
1P
#325000
1!
1W
0P
#350000
0!
0W
1P
#375000
1!
1W
0P
#400000
0!
0W
1P
#425000
1!
1W
0P
#450000
0!
0W
1P
#475000
1!
1W
0P
#500000
0!
0W
1P
#525000
1!
1W
0P
#550000
0!
0W
1P
#575000
1!
1W
0P
#600000
0!
0W
1P
#625000
1!
1W
0P
#630000
b101 &
b0 #
b1 #
b110 $
b100 $
0_"
1^"
1c"
0b"
1Z"
1P
05"
06"
07"
08"
09"
1}
0<"
1]
0%!
0[
17!
1(!
1s
1_
1u!
1c!
1W!
1<!
11!
1|
1o
1^
18!
00!
1t
1{!
1n!
1_!
1R!
1F!
1E!
09!
19!
0;"
0+"
1%"
15"
16"
1&"
17"
1'"
18"
1("
1)"
19"
1Q!
0F!
0:"
0*"
0N
1H
1I
1J
1K
1L
0M
1:"
1*"
1^!
0R!
0)"
09"
1M
0L
1j!
0_!
08"
0("
0K
1z!
0n!
07"
0'"
0J
0{!
06"
0&"
0I
0%"
05"
0H
#650000
0!
0W
0P
#675000
1!
1W
1P
0~
0!!
0v
0?
0w
0L"
1x
08!
10!
1<"
1,"
1O
09!
1;"
1+"
1N
0:"
0*"
0M
#700000
0!
0W
0P
#725000
1!
1W
1P
0=!
12!
1~
0C!
0@!
1.!
1!!
1v
0=
1>
1?
0D!
1/!
1w
0E!
19!
18!
00!
1L"
0x
0Q!
1F!
1:"
1*"
1E!
09!
0;"
0+"
10!
0<"
0,"
1M
0N
0O
0^!
1R!
1)"
19"
1Q!
0F!
0:"
0*"
1;"
1+"
1L
0M
1N
0j!
1_!
18"
1("
1^!
0R!
0)"
09"
1K
0L
0z!
1n!
17"
1'"
1j!
0_!
08"
0("
1J
0K
1{!
16"
1&"
1z!
0n!
07"
0'"
1I
0J
1%"
15"
0{!
06"
0&"
1H
0I
0%"
05"
0H
#750000
0!
0W
0P
#760000
b100 "
b1 &
b11 &
b0 '
b1 '
b10 &
b0 $
b10 $
1_"
0^"
1W"
0V"
0Z"
1Y"
0X"
1d"
1P
15"
16"
17"
18"
19"
1:"
0}
1<"
0]
1B!
0w
0v
0.!
07!
0(!
1'!
0s
0_
16!
0t
1u
1z
1X
0u!
0c!
0W!
0<!
01!
0|
0o
0^
1C!
0L"
1w
0/!
00!
0T"
1(!
1{!
0z!
1n!
0j!
1_!
0^!
1R!
0Q!
1F!
17!
0u
0:!
0y
1D!
08!
10!
1L"
0+"
1T"
1%"
0{!
1&"
0n!
1'"
0_!
1("
0R!
1)"
0E!
19!
0N
1H
1I
1J
1K
1L
1+"
18!
00!
0%"
1o!
0&"
0'"
1S!
0("
0F!
1*"
1N
0H
0I
0J
0K
1M
1E!
09!
0+"
0o!
0S!
0)"
1:!
0N
0L
1F!
0*"
0M
1)"
0:!
1L
#775000
1!
1W
0P
1K!
1H!
1,
#800000
0!
0W
1P
#825000
1!
1W
0P
#850000
b0 &
b0 '
0!
0W"
0Y"
0W
1P
0B!
0w
1p
1N!
06!
0'!
0C!
0L"
1x
1q
1O!
07!
0(!
0D!
08!
1,"
1r
1P!
0T"
0x
1O
0E!
1y
1Q!
0,"
0O
0F!
1R!
0y
0)"
1("
0L
1K
1S!
#875000
1!
1W
0P
1T!
0K!
1[!
1U!
1k
0N!
0H!
0p
1+
0,
1\!
1l
0O!
0q
1]!
1m
0P!
0r
1^!
0Q!
1_!
0R!
1'"
0("
1J
0K
0S!
#900000
0!
0W
1P
#925000
1!
1W
0P
1b!
0T!
1g!
1e!
1h
0[!
0U!
0k
1*
0+
1h!
1i
0\!
0l
1i!
1j
0]!
0m
1j!
0^!
1n!
0_!
1&"
0'"
1I
0J
1o!
#950000
0!
0W
1P
#975000
1!
1W
0P
1p!
0b!
1w!
1q!
1k!
0g!
0e!
0h
1)
0*
1x!
1l!
0h!
0i
1y!
1m!
0i!
0j
1z!
0j!
1{!
0n!
1%"
0&"
1H
0I
0o!
