HW3/CAHW3/practical/files/simulation/qsim/myALU.msim.vcd
$comment
	File created using the following command:
		vcd file myALU.msim.vcd -direction
$end
$date
	Tue Mar 12 01:41:49 2024
$end
$version
	ModelSim Version 10.1d
$end
$timescale
	1ps
$end
$scope module myALU_vlg_vec_tst $end
$var reg 1 ! clock $end
$var reg 8 " i1_ [7:0] $end
$var reg 8 # i2_ [7:0] $end
$var reg 4 $ opcode [3:0] $end
$var wire 1 % out [7] $end
$var wire 1 & out [6] $end
$var wire 1 ' out [5] $end
$var wire 1 ( out [4] $end
$var wire 1 ) out [3] $end
$var wire 1 * out [2] $end
$var wire 1 + out [1] $end
$var wire 1 , out [0] $end
$var wire 1 - ready $end
$var wire 1 . zero $end
$var wire 1 / sampler $end
$scope module i1 $end
$var wire 1 0 gnd $end
$var wire 1 1 vcc $end
$var wire 1 2 unknown $end
$var tri1 1 3 devclrn $end
$var tri1 1 4 devpor $end
$var tri1 1 5 devoe $end
$var wire 1 6 zero~output_o $end
$var wire 1 7 ready~output_o $end
$var wire 1 8 out[7]~output_o $end
$var wire 1 9 out[6]~output_o $end
$var wire 1 : out[5]~output_o $end
$var wire 1 ; out[4]~output_o $end
$var wire 1 < out[3]~output_o $end
$var wire 1 = out[2]~output_o $end
$var wire 1 > out[1]~output_o $end
$var wire 1 ? out[0]~output_o $end
$var wire 1 @ i2_[5]~input_o $end
$var wire 1 A i1_[5]~input_o $end
$var wire 1 B inst10|5~2_combout $end
$var wire 1 C i1_[4]~input_o $end
$var wire 1 D i2_[4]~input_o $end
$var wire 1 E inst5|inst|instance|$00000|auto_generated|result_node[0]~0_combout $end
$var wire 1 F i2_[0]~input_o $end
$var wire 1 G i1_[0]~input_o $end
$var wire 1 H inst10|5~0_combout $end
$var wire 1 I i1_[7]~input_o $end
$var wire 1 J i2_[7]~input_o $end
$var wire 1 K inst10|5~1_combout $end
$var wire 1 L inst10|5~3_combout $end
$var wire 1 M i1_[6]~input_o $end
$var wire 1 N i2_[6]~input_o $end
$var wire 1 O inst10|5~4_combout $end
$var wire 1 P i1_[2]~input_o $end
$var wire 1 Q i2_[2]~input_o $end
$var wire 1 R inst10|5~5_combout $end
$var wire 1 S i2_[3]~input_o $end
$var wire 1 T i1_[3]~input_o $end
$var wire 1 U inst10|5~7_combout $end
$var wire 1 V i1_[1]~input_o $end
$var wire 1 W i2_[1]~input_o $end
$var wire 1 X inst10|5~6_combout $end
$var wire 1 Y inst10|5~8_combout $end
$var wire 1 Z opcode[3]~input_o $end
$var wire 1 [ inst10|5~9_combout $end
$var wire 1 \ clock~input_o $end
$var wire 1 ] clock~inputclkctrl_outclk $end
$var wire 1 ^ inst8|inst5|inst~0_combout $end
$var wire 1 _ opcode[0]~input_o $end
$var wire 1 ` opcode[2]~input_o $end
$var wire 1 a opcode[1]~input_o $end
$var wire 1 b inst11|$00000|auto_generated|result_node[6]~12_combout $end
$var wire 1 c inst8|inst14~0_combout $end
$var wire 1 d inst8|inst14~q $end
$var wire 1 e inst8|inst17~combout $end
$var wire 1 f inst8|inst5|inst~q $end
$var wire 1 g inst8|inst5|inst1~0_combout $end
$var wire 1 h inst8|inst5|inst1~q $end
$var wire 1 i inst8|inst5|inst2~0_combout $end
$var wire 1 j inst8|inst5|inst2~q $end
$var wire 1 k inst8|inst5|inst3~0_combout $end
$var wire 1 l inst8|inst5|inst3~q $end
$var wire 1 m inst8|inst21~0_combout $end
$var wire 1 n inst8|inst~0_combout $end
$var wire 1 o inst8|inst5|inst8~combout $end
$var wire 1 p inst8|inst5|inst6~0_combout $end
$var wire 1 q inst8|inst5|inst6~q $end
$var wire 1 r inst8|inst18|inst|inst6|5~0_combout $end
$var wire 1 s inst8|inst18|inst|inst1~q $end
$var wire 1 t inst8|inst18|inst|inst7|5~0_combout $end
$var wire 1 u inst8|inst18|inst|inst2~q $end
$var wire 1 v inst8|inst18|inst|inst8|5~0_combout $end
$var wire 1 w inst8|inst18|inst|inst3~q $end
$var wire 1 x inst8|inst18|inst1|inst5|5~0_combout $end
$var wire 1 y inst8|inst18|inst1|inst~q $end
$var wire 1 z inst8|inst18|inst1|inst6|5~0_combout $end
$var wire 1 { inst8|inst18|inst1|inst1~q $end
$var wire 1 | inst8|inst18|inst1|inst7|5~0_combout $end
$var wire 1 } inst8|inst18|inst1|inst2~q $end
$var wire 1 ~ inst8|inst18|inst1|inst8|5~0_combout $end
$var wire 1 !! inst8|inst18|inst1|inst3~q $end
$var wire 1 "! inst8|inst3~feeder_combout $end
$var wire 1 #! inst8|inst3~q $end
$var wire 1 $! inst8|inst8|inst|inst|inst5|inst3~combout $end
$var wire 1 %! inst8|inst8|inst|inst|inst3|inst4~combout $end
$var wire 1 &! inst8|inst8|inst|inst|inst5|inst2~combout $end
$var wire 1 '! inst8|inst8|inst|instance|$00000|auto_generated|result_node[1]~1_combout $end
$var wire 1 (! inst8|inst2|inst2|$00000|auto_generated|result_node[5]~8_combout $end
$var wire 1 )! inst8|inst13|inst|inst3~0_combout $end
$var wire 1 *! inst8|inst4|inst|inst1|inst3|inst4~0_combout $end
$var wire 1 +! inst8|inst4|inst|inst2|inst3|inst4~0_combout $end
$var wire 1 ,! inst8|inst4|inst|inst|inst3|inst4~0_combout $end
$var wire 1 -! inst8|inst4|inst|inst|inst5|inst4~0_combout $end
$var wire 1 .! inst8|inst4|inst|inst|inst5|inst4~1_combout $end
$var wire 1 /! inst8|inst4|inst|instance|$00000|auto_generated|result_node[3]~1_combout $end
$var wire 1 0! inst8|inst4|inst|instance|$00000|auto_generated|result_node[3]~2_combout $end
$var wire 1 1! inst8|inst8|inst|instance|$00000|auto_generated|result_node[3]~2_combout $end
$var wire 1 2! inst8|inst8|inst|instance|$00000|auto_generated|result_node[3]~3_combout $end
$var wire 1 3! inst8|inst8|inst|instance|$00000|auto_generated|result_node[3]~4_combout $end
$var wire 1 4! inst8|inst13|inst|inst~0_combout $end
$var wire 1 5! inst8|inst18|inst|inst5|5~2_combout $end
$var wire 1 6! inst8|inst13|inst|inst~q $end
$var wire 1 7! inst8|inst13|inst|inst3~1_combout $end
$var wire 1 8! inst8|inst2|inst2|$00000|auto_generated|result_node[6]~4_combout $end
$var wire 1 9! inst8|inst2|inst2|$00000|auto_generated|result_node[6]~5_combout $end
$var wire 1 :! inst8|inst2|inst2|$00000|auto_generated|result_node[6]~6_combout $end
$var wire 1 ;! inst8|inst2|inst2|$00000|auto_generated|result_node[6]~7_combout $end
$var wire 1 <! inst8|inst13|inst|inst2~q $end
$var wire 1 =! inst8|inst2|inst2|$00000|auto_generated|result_node[5]~2_combout $end
$var wire 1 >! inst8|inst2|inst2|$00000|auto_generated|result_node[5]~3_combout $end
$var wire 1 ?! inst8|inst13|inst|inst3~q $end
$var wire 1 @! inst8|inst8|inst|instance|$00000|auto_generated|result_node[0]~0_combout $end
$var wire 1 A! inst8|inst4|inst|instance|$00000|auto_generated|result_node[0]~0_combout $end
$var wire 1 B! inst8|inst13|inst1|inst~0_combout $end
$var wire 1 C! inst8|inst13|inst1|inst~q $end
$var wire 1 D! inst8|inst8|inst|inst|inst5|inst~0_combout $end
$var wire 1 E! inst8|inst8|inst|inst|inst5|inst1~combout $end
$var wire 1 F! inst8|inst4|inst|inst|inst5|inst1~combout $end
$var wire 1 G! inst8|inst13|inst1|inst1~0_combout $end
$var wire 1 H! inst8|inst13|inst1|inst1~q $end
$var wire 1 I! inst8|inst8|inst|inst|inst4|inst1~combout $end
$var wire 1 J! inst8|inst4|inst|inst|inst4|inst1~combout $end
$var wire 1 K! inst8|inst13|inst1|inst2~0_combout $end
$var wire 1 L! inst8|inst13|inst1|inst2~q $end
$var wire 1 M! inst8|inst8|inst|inst|inst3|inst1~combout $end
$var wire 1 N! inst8|inst4|inst|inst|inst3|inst1~combout $end
$var wire 1 O! inst8|inst13|inst1|inst3~0_combout $end
$var wire 1 P! inst8|inst13|inst1|inst3~q $end
$var wire 1 Q! inst8|inst18|inst|inst5|5~0_combout $end
$var wire 1 R! inst8|inst18|inst|inst5|5~1_combout $end
$var wire 1 S! inst8|inst18|inst|inst~q $end
$var wire 1 T! inst13|inst1|$00000|auto_generated|result_node[7]~0_combout $end
$var wire 1 U! inst5|inst|inst|inst3|inst4~combout $end
$var wire 1 V! inst5|inst|inst|inst5|inst2~combout $end
$var wire 1 W! inst5|inst|inst|inst5|inst3~combout $end
$var wire 1 X! inst5|inst|instance|$00000|auto_generated|result_node[3]~1_combout $end
$var wire 1 Y! inst5|inst|instance|$00000|auto_generated|result_node[3]~2_combout $end
$var wire 1 Z! inst5|inst|instance|$00000|auto_generated|result_node[3]~3_combout $end
$var wire 1 [! inst1|inst|inst2|inst3|inst4~0_combout $end
$var wire 1 \! inst1|inst|inst|inst3|inst4~0_combout $end
$var wire 1 ]! inst1|inst|inst|inst5|inst4~0_combout $end
$var wire 1 ^! inst1|inst|inst|inst5|inst4~1_combout $end
$var wire 1 _! inst1|inst|inst1|inst3|inst4~0_combout $end
$var wire 1 `! inst1|inst|instance|$00000|auto_generated|result_node[3]~4_combout $end
$var wire 1 a! inst1|inst|instance|$00000|auto_generated|result_node[3]~5_combout $end
$var wire 1 b! inst13|inst|$00000|auto_generated|result_node[7]~0_combout $end
$var wire 1 c! inst11|$00000|auto_generated|result_node[7]~4_combout $end
$var wire 1 d! inst11|$00000|auto_generated|result_node[7]~5_combout $end
$var wire 1 e! inst11|$00000|auto_generated|result_node[6]~6_combout $end
$var wire 1 f! inst11|$00000|auto_generated|result_node[6]~8_combout $end
$var wire 1 g! inst11|$00000|auto_generated|result_node[6]~7_combout $end
$var wire 1 h! inst11|$00000|auto_generated|result_node[6]~9_combout $end
$var wire 1 i! inst11|$00000|auto_generated|result_node[6]~10_combout $end
$var wire 1 j! inst1|inst|inst2|inst4|inst1~combout $end
$var wire 1 k! inst5|inst|instance|$00000|auto_generated|result_node[2]~4_combout $end
$var wire 1 l! inst5|inst|instance|$00000|auto_generated|result_node[2]~5_combout $end
$var wire 1 m! inst11|$00000|auto_generated|result_node[6]~11_combout $end
$var wire 1 n! inst11|$00000|auto_generated|result_node[6]~34_combout $end
$var wire 1 o! inst11|$00000|auto_generated|result_node[5]~13_combout $end
$var wire 1 p! inst5|inst|inst|inst5|inst4~combout $end
$var wire 1 q! inst5|inst|instance|$00000|auto_generated|result_node[1]~6_combout $end
$var wire 1 r! inst11|$00000|auto_generated|result_node[5]~14_combout $end
$var wire 1 s! inst11|$00000|auto_generated|result_node[5]~15_combout $end
$var wire 1 t! inst13|inst|$00000|auto_generated|result_node[5]~1_combout $end
$var wire 1 u! inst11|$00000|auto_generated|result_node[5]~16_combout $end
$var wire 1 v! inst11|$00000|auto_generated|result_node[5]~35_combout $end
$var wire 1 w! inst1|inst|instance|$00000|auto_generated|result_node[0]~6_combout $end
$var wire 1 x! inst13|inst|$00000|auto_generated|result_node[4]~2_combout $end
$var wire 1 y! inst11|$00000|auto_generated|result_node[4]~17_combout $end
$var wire 1 z! inst11|$00000|auto_generated|result_node[4]~18_combout $end
$var wire 1 {! inst11|$00000|auto_generated|result_node[4]~19_combout $end
$var wire 1 |! inst11|$00000|auto_generated|result_node[4]~20_combout $end
$var wire 1 }! inst11|$00000|auto_generated|result_node[4]~21_combout $end
$var wire 1 ~! inst13|inst|$00000|auto_generated|result_node[3]~3_combout $end
$var wire 1 !" inst11|$00000|auto_generated|result_node[3]~22_combout $end
$var wire 1 "" inst1|inst|inst|inst5|inst1~combout $end
$var wire 1 #" inst11|$00000|auto_generated|result_node[3]~23_combout $end
$var wire 1 $" inst5|inst|inst|inst4|inst4~combout $end
$var wire 1 %" inst11|$00000|auto_generated|result_node[3]~24_combout $end
$var wire 1 &" inst13|inst|$00000|auto_generated|result_node[2]~4_combout $end
$var wire 1 '" inst11|$00000|auto_generated|result_node[2]~25_combout $end
$var wire 1 (" inst1|inst|inst|inst4|inst1~combout $end
$var wire 1 )" inst11|$00000|auto_generated|result_node[2]~26_combout $end
$var wire 1 *" inst11|$00000|auto_generated|result_node[2]~27_combout $end
$var wire 1 +" inst5|inst|inst|inst|inst4~0_combout $end
$var wire 1 ," inst1|inst|inst|inst3|inst1~combout $end
$var wire 1 -" inst13|inst|$00000|auto_generated|result_node[1]~5_combout $end
$var wire 1 ." inst11|$00000|auto_generated|result_node[1]~28_combout $end
$var wire 1 /" inst11|$00000|auto_generated|result_node[1]~29_combout $end
$var wire 1 0" inst11|$00000|auto_generated|result_node[1]~30_combout $end
$var wire 1 1" inst11|$00000|auto_generated|result_node[0]~31_combout $end
$var wire 1 2" inst11|$00000|auto_generated|result_node[0]~32_combout $end
$var wire 1 3" inst11|$00000|auto_generated|result_node[0]~33_combout $end
$upscope $end
$upscope $end
$enddefinitions $end
#0
$dumpvars
0!
b10010010 "
b10111001 #
b111 $
1,
0+
0*
1)
1(
0'
1&
1%
0-
1.
x/
00
11
x2
13
14
15
16
07
18
19
0:
1;
1<
0=
0>
1?
1@
0A
1B
1C
1D
0E
1F
0G
1H
1I
1J
0K
1L
0M
0N
0O
0P
0Q
0R
1S
0T
1U
1V
0W
1X
1Y
0Z
1[
0\
0]
1^
1_
1`
1a
0b
0c
0d
0e
0f
0g
0h
0i
0j
0k
0l
0m
0n
0o
0p
0q
0r
0s
1t
0u
1v
0w
1x
0y
0z
0{
0|
0}
1~
0!!
0"!
0#!
0$!
0%!
0&!
0'!
0(!
0)!
0*!
0+!
0,!
0-!
0.!
0/!
10!
01!
02!
13!
04!
15!
06!
17!
08!
09!
1:!
0;!
0<!
1=!
0>!
0?!
1@!
1A!
0B!
0C!
0D!
0E!
0F!
1G!
0H!
0I!
0J!
1K!
0L!
0M!
1N!
1O!
0P!
0Q!
1R!
0S!
0T!
1U!
0V!
0W!
0X!
0Y!
0Z!
1[!
0\!
0]!
0^!
1_!
1`!
0a!
1b!
1c!
1d!
0e!
1f!
1g!
0h!
1i!
1j!
0k!
0l!
1m!
1n!
0o!
0p!
1q!
0r!
1s!
1t!
0u!
0v!
0w!
1x!
1y!
0z!
0{!
1|!
1}!
1~!
0!"
1""
1#"
1$"
1%"
0&"
0'"
0("
0)"
0*"
0+"
1,"
1-"
1."
1/"
00"
11"
12"
13"
$end
#10000
1!
1\
1]
0/
#20000
0!
0\
0]
1/
#30000
1!
1\
1]
0/
#40000
0!
0\
0]
1/
#50000
b10110010 "
b10100010 "
b10101010 "
b10101011 "
b111001 #
b11001 #
b1001 #
b1 #
b0 #
1!
0F
0S
0D
0@
0J
1G
1T
0C
1A
1\
1]
0/
1+"
0~
1p!
1W!
0x
0x!
0_!
0[!
0v
1l!
1Y!
0t
0R!
1K
1M!
1D!
0A!
0@!
1(!
0q!
1k!
1X!
0`!
0j!
0m!
1a!
0O!
1F!
1E!
1B!
10"
0}!
1u!
0G!
1>
0;
1+
0(
0n!
09
0&
1v!
1:
1'
#60000
0!
0\
0]
1/
#70000
1!
1\
1]
0/
#80000
0!
0\
0]
1/
#90000
1!
1\
1]
0/
#100000
b10101001 "
b1000000 #
b1000100 #
b1000110 #
b10111001 "
b11000110 #
b11010110 #
0!
1W
1Q
1D
1N
1J
0V
1C
0\
0]
1/
0U!
1|
1("
1&"
0$"
1z
1R
1x!
1r!
1_!
1[!
1v
1j!
1h!
1Z!
1r
1O
1R!
0K
0N!
0M!
1A!
1@!
1+!
1)"
1`!
0j!
0l!
0a!
0Z!
1O!
0B!
18!
0%"
0d!
1a!
1m!
0<
08
0)
0%
1d!
18
1%
1n!
19
1&
#110000
1!
1\
1]
0/
#120000
0!
0\
0]
1/
#130000
1!
1\
1]
0/
#140000
0!
0\
0]
1/
#150000
b111001 "
b1111001 "
b1011001 "
b11011110 #
b1011011 "
b1011110 #
1!
1S
0J
1V
0A
1M
0I
1\
1]
0/
0p!
1^!
0W!
1x
0U
0b!
0R!
0,"
1\!
1U!
1N!
1M!
0X
0t!
0_!
0[!
0+!
0(!
0B
1j!
1Z!
03!
00!
0O
1w!
0`!
0k!
0X!
0."
0("
1]!
0O!
0j!
08!
14!
1l!
1}!
1%"
1*"
00"
0d!
1{!
0l!
0Y!
0/"
0)"
0m!
1;
1<
1=
0>
08
1(
1)
1*
0+
0%
1m!
0Z!
0n!
09
0&
1n!
1d!
19
18
1&
1%
#160000
0!
0\
0]
1/
#170000
1!
1\
1]
0/
#180000
0!
0\
0]
1/
#190000
1!
1\
1]
0/
#200000
b1010011 "
b1111110 #
b111110 #
b11010011 "
0!
1@
0N
0T
1I
0\
0]
1/
1t!
0r!
1_!
1[!
1t
1B
1j!
0a!
1Z!
0r
1O
0D!
1U
1b!
13!
10!
1K
1`!
0j!
1q!
1l!
0F!
0E!
0""
04!
1a!
0Z!
0d!
0%"
0a!
0m!
0u!
1G!
0#"
08
0<
0%
0)
1d!
18
1%
0n!
0v!
09
0:
0&
0'
#210000
1!
1\
1]
0/
#220000
0!
0\
0]
1/
#230000
1!
1\
1]
0/
#240000
0!
0\
0]
1/
#250000
b11010010 "
b111111 #
b111011 #
b111001 #
b11110010 "
b110001 #
b10110001 #
b11111010 "
b10010001 #
b11010001 #
1!
1F
0W
0Q
0S
0@
1N
1J
0G
1T
1A
1\
1]
0/
1,"
0+"
0\!
1~
0|
1X
1("
0&"
1$"
1""
0]!
0z
0R
1p!
1W!
0x
1r!
0l!
1Y!
0t
1j!
1Z!
1r
0O
1R!
0K
0M!
1D!
1+!
1(!
1."
0("
1)"
1#"
0^!
0q!
1k!
1X!
1m!
1l!
1a!
1O!
1F!
1E!
18!
1%"
0*"
0}!
0d!
1/"
0)"
0w!
1u!
0m!
0G!
1<
0=
0;
08
1)
0*
0(
0%
1n!
0{!
19
1&
1v!
0n!
1:
09
1'
0&
#260000
0!
0\
0]
1/
#270000
1!
1\
1]
0/
#280000
0!
0\
0]
1/
#290000
1!
1\
1]
0/
#300000
b11111110 "
b11000001 #
b11111100 "
b1111100 "
b1111101 "
b11000000 #
b1000000 #
b1100000 #
b100000 #
0!
0F
0D
1@
0N
0J
1G
0V
1P
0I
0\
0]
1/
0,"
1+"
0~
1w!
0r!
0v
1E
1t
0B
0j!
0r
1O
0b!
0R!
0N!
0-"
0X
1("
1&"
1J!
1I!
1R
03!
00!
0."
1{!
1q!
0l!
1)"
0K!
14!
1}!
1*"
0/"
0u!
1m!
1;
1=
1(
1*
0v!
1n!
0:
19
0'
1&
#310000
1!
1\
1]
0/
#320000
0!
0\
0]
1/
#330000
1!
1\
1]
0/
#340000
0!
0\
0]
1/
#350000
b111101 "
b100100 #
b11101 "
b10101 "
b10100 "
b10100100 #
b10000100 #
1!
1Q
0@
1J
0G
0T
0A
0M
1\
1]
0/
0("
0""
1]!
1z
0R
0t!
1r!
0_!
0[!
0t
1b!
1R!
1K
1M!
1%!
0H
0~!
0p!
0W!
0D!
0U
0+!
0(!
1j!
0h!
0a!
0O
0)"
0#"
0Y
0`!
0j!
1a!
0Z!
0O!
0I!
0E!
0F!
1""
1V!
08!
1l!
0*"
03"
0}!
0%"
0m!
1K!
1G!
1#"
1p!
0=
0?
0;
0<
0*
0,
0(
0)
1d!
18
1%
0n!
1}!
09
1;
0&
1(
#360000
0!
0\
0]
1/
#370000
1!
1\
1]
0/
#380000
0!
0\
0]
1/
#390000
1!
1\
1]
0/
#400000
b100 "
b0 "
b10000000 "
b11000100 #
b11000000 "
b11000000 #
b11100000 "
b11100000 #
0!
0Q
1@
1N
0P
0C
1A
1M
1I
0\
0]
1/
0&"
0""
0]!
0z
1t!
1_!
1[!
1t
1h!
0a!
1r
0J!
1I!
1E!
1&!
0x!
0w!
0A!
0@!
0E
1(!
13!
10!
0K
0#"
1`!
1j!
0K!
0G!
1@!
11!
1'!
0{!
1B!
0L
04!
1a!
1Z!
0}!
0B!
0(!
0;
0(
0[
0d!
06
08
0.
0%
#410000
1!
1\
1]
0/
#420000
0!
0\
0]
1/
#430000
1!
1\
1]
0/
#440000
0!
0\
0]
1/
#450000
b11101000 #
b11101000 "
b1101000 #
b10101000 "
b1101100 #
b10001000 "
b1001100 #
1!
1T
0A
0M
1Q
1S
0@
0J
1\
1]
0/
1~!
1^!
1D!
0t!
0_!
0[!
19!
12!
1(!
0j!
0Z!
1O
1("
1&"
0$"
0V!
1z
1R
1x
0r!
0t
0R!
1K
1w!
0`!
1F!
0E!
0&!
1j!
03!
0l!
1Y
1)"
0p!
0k!
0X!
0a!
1Z!
1L
1d!
1%"
1*"
1{!
1a!
1G!
0@!
01!
0'!
1m!
14!
0q!
1l!
0Y!
18
1<
1=
1%
1)
1*
1[
1}!
0d!
1B!
02!
09!
0(!
1u!
0m!
16
1;
08
1.
1(
0%
1n!
13!
19
1&
1v!
0n!
04!
1:
09
1'
0&
#460000
0!
0\
0]
1/
#470000
1!
1\
1]
0/
#480000
0!
0\
0]
1/
#490000
1!
1\
1]
0/
#500000
b1011100 #
b1011101 #
b10001001 "
b10011001 "
b10011101 "
b11101 "
b11101 #
b10101 #
b10101 "
0!
1G
1P
0T
1C
0I
1F
0S
1D
0N
0\
0]
1/
1,"
0M!
0%!
0("
1$"
1""
1]!
1V!
1J!
0I!
1E!
0R
0~!
0^!
0D!
1x!
1r!
1A!
1@!
0b!
03!
00!
0K
1~
0x
1v
0j!
0h!
0r
0O
1."
1O!
1I!
0E!
0)"
1#"
1p!
1k!
1X!
1K!
0G!
0Y
0w!
0F!
0B!
14!
0a!
0Z!
0L
0l!
0%"
0*"
1/"
0K!
1G!
1q!
1l!
1Y!
0{!
1m!
0<
0=
0)
0*
0}!
0[
1d!
0u!
0m!
1Z!
0;
06
18
0(
0.
1%
1n!
19
1&
0v!
0n!
0d!
0:
09
08
0'
0&
0%
#510000
1!
1\
1]
0/
#520000
0!
0\
0]
1/
#530000
1!
1\
1]
0/
#540000
0!
0\
0]
1/
#550000
b10111 #
b10111 "
b1010111 "
b1110111 "
b111 #
b1110011 "
b11110011 "
b1111 #
b11111011 "
1!
1V
0P
1T
1A
1M
1I
1W
1S
0D
1\
1]
0/
1-"
1\!
1N!
1M!
1("
0$"
0""
0]!
0V!
0J!
0I!
1R
1~!
1^!
1D!
1t!
1[!
1+!
1(!
1B
1j!
1h!
13!
10!
1O
1b!
1K
1|
1x
1w!
0v
1E
0("
1""
1]!
0O!
1)"
0#"
0p!
1K!
1Y
0w!
1`!
1F!
1E!
0j!
18!
0q!
1L
04!
0l!
1a!
0Z!
1{!
1%"
1*"
1}!
0)"
1#"
0{!
0a!
0G!
1m!
1u!
1<
1=
1;
1)
1*
1(
0}!
1[
1d!
0;
16
18
0(
1.
1%
1n!
1v!
19
1:
1&
1'
#560000
0!
0\
0]
1/
#570000
1!
1\
1]
0/
#580000
0!
0\
0]
1/
#590000
1!
1\
1]
0/
#600000
b10001111 #
b10001011 #
b10101011 #
b10101010 #
b11111010 "
b11101010 "
b11101000 "
b10101000 "
b10111010 #
0!
0G
0V
0C
0M
0F
0Q
1D
1@
1J
0\
0]
1/
0\!
0U!
0N!
1%!
1X
0r!
1q!
0k!
1_!
0X!
0A!
0@!
0+!
1j!
0h!
1a!
0O
0~
1("
0&"
1$"
0""
0]!
1V!
0z
0R
1v
1t
0B
1R!
0K
0("
0$"
0V!
1I!
0E!
0u!
0Y!
1B!
08!
1)"
0#"
1p!
0q!
0a!
1Z!
10"
0%"
0)"
0p!
0K!
1G!
0Z!
1u!
1>
0<
1+
0)
1%"
0v!
1}!
0d!
1<
0:
1;
08
1)
0'
1(
0%
0}!
1d!
1v!
0;
18
1:
0(
1%
1'
#610000
1!
1\
1]
0/
#620000
0!
0\
0]
1/
#630000
1!
1\
1]
0/
#640000
0!
0\
0]
1/
#650000
b101000 "
b10110010 #
b100000 "
b110010 #
b110110 #
b110111 #
b100010 "
b100111 #
1!
1F
1Q
0S
0D
0J
1V
0T
0I
1\
1]
0/
0,"
0+"
1\!
1~
1H
1("
1&"
1z
1R
0~!
0^!
0x
0x!
1w!
1r!
0v
0E
0b!
0R!
1N!
0M!
0%!
0X
0D!
03!
00!
0."
0("
1""
1]!
1)"
0w!
1{!
1O!
0I!
0F!
14!
13"
0*"
1}!
0/"
0)"
1#"
0{!
1K!
1?
0=
1;
1,
0*
1(
#660000
0!
0\
0]
1/
#670000
1!
1\
1]
0/
#680000
0!
0\
0]
1/
#690000
1!
1\
1]
0/
#700000
b1100111 #
b1100101 #
b100110 "
b1000101 #
b100111 "
b110111 "
b1110111 "
b1111111 "
b1000001 #
0!
1G
1P
1T
1C
1M
0W
0Q
0@
1N
0\
0]
1/
1+"
1U!
1M!
0H
1$"
1V!
1J!
1I!
1~!
1p!
1^!
1W!
1D!
1U
1x!
1w!
1q!
1k!
0_!
1X!
1A!
1@!
1+!
1E
1h!
1a!
0|
1X
0z
1l!
1Y!
0t
1B
1r
0V!
0O!
0K!
0q!
0w!
1F!
1E!
0""
1{!
0u!
0B!
18!
0m!
1Z!
1*"
03"
1u!
0{!
0G!
0#"
1=
0?
1*
0,
0v!
0n!
0d!
0:
09
08
0'
0&
0%
1v!
1:
1'
#710000
1!
1\
1]
0/
#720000
0!
0\
0]
1/
#730000
1!
1\
1]
0/
#740000
0!
0\
0]
1/
#750000
b11111111 "
b1001001 #
b11111101 "
b1001011 #
b11111100 "
b10111100 "
b10110100 "
1!
1W
1S
0G
0V
0T
0M
1I
1\
1]
0/
1,"
0\!
0U!
1|
0p!
0W!
1x
0+"
0N!
1%!
1H
0D!
0j!
0Z!
13!
10!
1O
1b!
1K
1."
1("
1""
0]!
0I!
0E!
0F!
04!
0l!
0a!
1Z!
0*"
0}!
00"
13"
1d!
1/"
1)"
1#"
0^!
1K!
1G!
1m!
0=
0;
0>
1?
18
0*
0(
0+
1,
1%
0d!
1w!
0`!
08
0%
1n!
1{!
1a!
19
1&
#760000
0!
0\
0]
1/
#770000
1!
1\
1]
0/
#780000
0!
0\
0]
1/
#790000
1!
1\
1]
0/
#800000
b11001011 #
b11001010 #
b11011010 #
b10011010 #
b10110000 "
b10111010 #
b10111110 #
b10110110 #
b10110100 #
b10110001 "
b11110001 "
b11111001 "
0!
1G
0P
1T
1M
0F
0W
1Q
0S
1D
1@
0N
1J
0\
0]
1/
0,"
1+"
1U!
0M!
0%!
0$"
0J!
1I!
1E!
1&!
1p!
1W!
1D!
0Z!
0~
0-"
0|
0X
1z
0x
0w!
0r!
1q!
0k!
1_!
0X!
1v
0E
1t
0B
0r
1R!
0K
0."
1O!
0I!
0&!
0K!
0G!
0@!
1k!
1X!
1F!
0{!
0u!
1l!
1`!
0Y!
0a!
1Z!
1*"
0%"
1d!
0/"
1K!
1@!
1B!
0l!
1Y!
0m!
1a!
1=
0<
18
1*
0)
1%
0v!
0d!
0B!
1m!
0:
08
0'
0%
0n!
09
0&
1n!
19
1&
#810000
1!
1\
1]
0/
#820000
0!
0\
0]
1/
#830000
1!
1\
1]
0/
#840000
0!
0\
0]
1/
#850000
b11011001 "
b1011001 "
b1011011 "
b10110101 #
b11110101 #
b1011111 "
b11010101 #
b1011110 "
1!
1F
0@
1N
0G
1V
1P
0A
0I
1\
1]
0/
1,"
0+"
1~
0t!
1r!
0_!
0[!
0t
1j!
1r
0O
1N!
1-"
1X
0("
1$"
0""
1]!
1J!
1I!
0R
0+!
0(!
03!
00!
1K
1."
0`!
0j!
1l!
0)"
0#"
1^!
0K!
08!
14!
0a!
0Z!
1%"
0*"
1/"
0m!
1w!
1<
0=
1)
0*
1d!
1{!
18
1%
0n!
09
0&
#860000
0!
0\
0]
1/
#870000
1!
1\
1]
0/
#880000
0!
0\
0]
1/
#890000
1!
1\
1]
0/
#900000
b11110 "
b11100 "
b11010100 #
b11000 "
b11110100 #
0!
0F
1@
0V
0P
0M
0\
0]
1/
0,"
1+"
0~
0H
1t!
0r!
0l!
1_!
1[!
0Y!
1t
1B
0-"
0N!
1M!
1%!
0X
1("
0$"
1""
0]!
0J!
0I!
1R
1j!
1a!
1Z!
1O
0."
1m!
1`!
0j!
0q!
0O!
1I!
0E!
1)"
1#"
0^!
1K!
1l!
03"
0%"
1*"
0d!
0/"
0a!
0m!
1u!
0K!
1G!
0w!
0?
0<
1=
08
0,
0)
1*
0%
1n!
0{!
19
1&
0n!
1v!
09
1:
0&
1'
#910000
1!
1\
1]
0/
#920000
0!
0\
0]
1/
#930000
1!
1\
1]
0/
#940000
0!
0\
0]
1/
#950000
b11100100 #
b11100000 #
b10011000 "
b10100000 #
b10011010 "
1!
1V
1I
0Q
0D
0N
1\
1]
0/
1-"
1,"
1N!
0M!
0%!
1X
13!
10!
0K
0("
0&"
1$"
0z
0R
1w!
0_!
0v
1E
1j!
0h!
1a!
0r
0O
1."
1O!
0I!
1E!
04!
0a!
0Z!
0)"
1{!
0`!
0l!
10"
1%"
0*"
1}!
1/"
1K!
0G!
1m!
1>
1<
0=
1;
1+
1)
0*
1(
1d!
18
1%
1n!
19
1&
#960000
0!
0\
0]
1/
#970000
1!
1\
1]
0/
#980000
0!
0\
0]
1/
#990000
1!
1\
1]
0/
